{
    "cordova-plugin-whitelist": {
        "source": {
            "type": "registry",
            "id": "cordova-plugin-whitelist@1"
        },
        "is_top_level": true,
        "variables": {}
    },
    "com.phonegap.plugins.facebookconnect": {
        "source": {
            "type": "registry",
            "id": "com.phonegap.plugins.facebookconnect"
        },
        "is_top_level": true,
        "variables": {
            "APP_ID": "436730876498811",
            "APP_NAME": "laQuestioneTest"
        }
    },

    "org.apache.cordova.core.parseplugin": {
        "source": {
            "type": "git",
            "url": "https://github.com/benjie/phonegap-parse-plugin",
            "subdir": "."
        },
        "is_top_level": true,
        "variables": {
            "APP_ID": "7iBeKQfOokKRZttfaPOeOqU42XA8hj3D5KltSHyB",
            "CLIENT_KEY": "M8bNuoG8V6sh2BH6H50zuArHyG37519lwk0nICBg"
        }

    "org.apache.cordova.device": {
        "source": {
            "type": "registry",
            "id": "org.apache.cordova.device"
        },
        "is_top_level": true,
        "variables": {}

    }
}